HW4
…
1. For my final project I want to focus on the relationship between race and total income, and the respondents education level. Specifically: Does a persons race OR education level have more of an impact on their total income? For instance, do white people with a high school diploma make more than individuals of a different race with the same or a higher degree?

2. The hypothesis that I want to test is as follows: in the context of racial politics in the United States (Ill provide more info later, I need to find sources) white people generally make more than their non-white counterparts who have the same or higher-level degrees.

3. Below Ill present some preliminary visualizations of my data in relation to my hypothesis.

library(dplyr)
library(tidyverse)
library(poliscidata)
gss %>%
  select(race, income06, degree)%>%
  head(25) %>%
  tibble()

# A tibble: 25 x 3
   race  income06           degree      
   <fct> <fct>              <fct>       
 1 White $150000 OR OVER    Bachelor deg
 2 White $150000 OR OVER    HS          
 3 Other $110000 TO $129999 HS          
 4 White $130000 TO $149999 HS          
 5 Black $50000 TO 59999    Bachelor deg
 6 White $25000 TO 29999    Bachelor deg
 7 White $30000 TO 34999    Junior Coll 
 8 Other $5 000 TO 5 999    <HS         
 9 Black UNDER $1 000       <HS         
10 White $30000 TO 34999    Bachelor deg
# ... with 15 more rows
…
